{
    "/js/app.js": "/js/app.js",
    "/js/jquery.min.js": "/js/jquery.min.js",
    "/js/bootstrap.bundle.min.js": "/js/bootstrap.bundle.min.js",
    "/js/jquery.easing.min.js": "/js/jquery.easing.min.js",
    "/js/Chart.min.js": "/js/Chart.min.js",
    "/css/app.css": "/css/app.css"
}
